{"frames": {

"bg/layer_3.png":
{
	"frame": {"x":1,"y":1,"w":1920,"h":720},
	"rotated": false,
	"trimmed": true,
	"spriteSourceSize": {"x":0,"y":360,"w":1920,"h":720},
	"sourceSize": {"w":1920,"h":1080}
},
"bg/layer_4.png":
{
	"frame": {"x":1,"y":723,"w":1920,"h":650},
	"rotated": false,
	"trimmed": true,
	"spriteSourceSize": {"x":0,"y":430,"w":1920,"h":650},
	"sourceSize": {"w":1920,"h":1080}
},
"bg/layer_5.png":
{
	"frame": {"x":1,"y":1375,"w":1920,"h":475},
	"rotated": false,
	"trimmed": true,
	"spriteSourceSize": {"x":0,"y":402,"w":1920,"h":475},
	"sourceSize": {"w":1920,"h":1080}
}},
"meta": {
	"app": "http://www.codeandweb.com/texturepacker",
	"version": "1.0",
	"image": "ss1.png",
	"format": "RGBA8888",
	"size": {"w":1922,"h":1851},
	"scale": "1",
	"smartupdate": "$TexturePacker:SmartUpdate:56e2ce3b8898cfe015290bb9eed17f7d:c5cb670e79ae52b8d230214bd40bcd9b:eb3af7854ec9d09885d8192a7f06f974$"
}
}
