{"frames": {

"flying_cruncher/frame1.png":
{
	"frame": {"x":1,"y":557,"w":934,"h":544},
	"rotated": false,
	"trimmed": true,
	"spriteSourceSize": {"x":13,"y":14,"w":934,"h":544},
	"sourceSize": {"w":958,"h":586}
},
"flying_cruncher/frame2.png":
{
	"frame": {"x":1,"y":1103,"w":898,"h":549},
	"rotated": false,
	"trimmed": true,
	"spriteSourceSize": {"x":13,"y":14,"w":898,"h":549},
	"sourceSize": {"w":958,"h":586}
},
"flying_cruncher/frame5.png":
{
	"frame": {"x":1,"y":1,"w":934,"h":554},
	"rotated": false,
	"trimmed": true,
	"spriteSourceSize": {"x":13,"y":14,"w":934,"h":554},
	"sourceSize": {"w":958,"h":586}
},
"flying_cruncher/frame6.png":
{
	"frame": {"x":901,"y":1103,"w":898,"h":549},
	"rotated": false,
	"trimmed": true,
	"spriteSourceSize": {"x":13,"y":14,"w":898,"h":549},
	"sourceSize": {"w":958,"h":586}
},
"green_monster/1.png":
{
	"frame": {"x":937,"y":1,"w":486,"h":536},
	"rotated": false,
	"trimmed": true,
	"spriteSourceSize": {"x":20,"y":22,"w":486,"h":536},
	"sourceSize": {"w":529,"h":558}
},
"green_monster/2.png":
{
	"frame": {"x":937,"y":539,"w":486,"h":536},
	"rotated": false,
	"trimmed": true,
	"spriteSourceSize": {"x":20,"y":22,"w":486,"h":536},
	"sourceSize": {"w":529,"h":558}
},
"green_monster/3.png":
{
	"frame": {"x":1425,"y":1,"w":486,"h":536},
	"rotated": false,
	"trimmed": true,
	"spriteSourceSize": {"x":20,"y":22,"w":486,"h":536},
	"sourceSize": {"w":529,"h":558}
},
"green_monster/4.png":
{
	"frame": {"x":1425,"y":539,"w":486,"h":536},
	"rotated": false,
	"trimmed": true,
	"spriteSourceSize": {"x":20,"y":22,"w":486,"h":536},
	"sourceSize": {"w":529,"h":558}
},
"green_monster/5.png":
{
	"frame": {"x":1425,"y":1,"w":486,"h":536},
	"rotated": false,
	"trimmed": true,
	"spriteSourceSize": {"x":20,"y":22,"w":486,"h":536},
	"sourceSize": {"w":529,"h":558}
}},
"meta": {
	"app": "http://www.codeandweb.com/texturepacker",
	"version": "1.0",
	"image": "ss3.png",
	"format": "RGBA8888",
	"size": {"w":1912,"h":1653},
	"scale": "1",
	"smartupdate": "$TexturePacker:SmartUpdate:56e2ce3b8898cfe015290bb9eed17f7d:c5cb670e79ae52b8d230214bd40bcd9b:eb3af7854ec9d09885d8192a7f06f974$"
}
}
